[
  {
    "beacon": "5f5e2c466d1c4a9782e61b6d9368da0c-0-202",
    "name": "Prof., PhD Andreas  Siebert",
    "room_no": "202",
    "room": " TI 202"
  },
  {
    "beacon": "5f5e2c466d1c4a9782e61b6d9368da0c-0-203",
    "name": "Prof. Dr. Markus  Mock",
    "room_no": "203",
    "room": " TI 203"
  },
  {
    "beacon": "5f5e2c466d1c4a9782e61b6d9368da0c-0-204",
    "name": "Prof. Dr. rer.-nat. Johannes  Busse",
    "room_no": "204",
    "room": " TI 204"
  },
  {
    "beacon": "5f5e2c466d1c4a9782e61b6d9368da0c-0-204",
    "name": "Prof. Dr. Matthias  Dorfner",
    "room_no": "204",
    "room": " TI 204"
  },
  {
    "beacon": "5f5e2c466d1c4a9782e61b6d9368da0c-0-205",
    "name": "Prof. Dr. rer. nat. Peter  Hartmann",
    "room_no": "205",
    "room": " TI 205"
  },
  {
    "beacon": "5f5e2c466d1c4a9782e61b6d9368da0c-0-206",
    "name": "Prof. Dr. rer. oec. Christian  Seel",
    "room_no": "206",
    "room": " TI 206"
  },
  {
    "beacon": "5f5e2c466d1c4a9782e61b6d9368da0c-0-206",
    "name": "Prof. Dr.-Ing. Jürgen  Wunderlich",
    "room_no": "206",
    "room": " TI 206"
  },
  {
    "beacon": "5f5e2c466d1c4a9782e61b6d9368da0c-0-211",
    "name": "Prof. Dr. rer. nat. Dieter  Nazareth",
    "room_no": "211",
    "room": " TI 211"
  },
  {
    "beacon": "5f5e2c466d1c4a9782e61b6d9368da0c-0-212",
    "name": "Prof. Dr.-Ing. Monika  Messerer",
    "room_no": "212",
    "room": " TI 212"
  },
  {
    "beacon": "5f5e2c466d1c4a9782e61b6d9368da0c-0-213",
    "name": "Prof. Dr.-Ing. Gudrun  Schiedermeier",
    "room_no": "213",
    "room": " TI 213"
  },
  {
    "beacon": "5f5e2c466d1c4a9782e61b6d9368da0c-0-214",
    "name": "Prof. Dr. rer. nat. Wolfgang  Jürgensen",
    "room_no": "214",
    "room": " TI 214"
  },
  {
    "beacon": "5f5e2c466d1c4a9782e61b6d9368da0c-0-215",
    "name": "Prof. Dr. rer. nat. Peter  Scholz",
    "room_no": "215",
    "room": " TI 215"
  },
  {
    "beacon": "5f5e2c466d1c4a9782e61b6d9368da0c-0-216",
    "name": "Prof. Ludwig  Griebl",
    "room_no": "216",
    "room": " TI 216"
  },
  {
    "beacon": "5f5e2c466d1c4a9782e61b6d9368da0c-0-216",
    "name": "Prof. Dr. Abdelmajid  Khelil",
    "room_no": "216",
    "room": " TI 216"
  },
  {
    "beacon": "5f5e2c466d1c4a9782e61b6d9368da0c-0-216",
    "name": "Prof. Dr.-Ing. Johann  Uhrmann",
    "room_no": "216",
    "room": " TI 216"
  },
  {
    "beacon": "5f5e2c466d1c4a9782e61b6d9368da0c-0-217",
    "name": "Prof. Dr.-Ing. Martin  Pellkofer",
    "room_no": "217",
    "room": " TI 217"
  }
]